<?xml version="1.0" encoding="UTF-8" standalone="no"?>
<!-- Created with Inkscape (http://www.inkscape.org/) -->

<svg
   xmlns:dc="http://purl.org/dc/elements/1.1/"
   xmlns:cc="http://creativecommons.org/ns#"
   xmlns:rdf="http://www.w3.org/1999/02/22-rdf-syntax-ns#"
   xmlns:svg="http://www.w3.org/2000/svg"
   xmlns="http://www.w3.org/2000/svg"
   xmlns:sodipodi="http://sodipodi.sourceforge.net/DTD/sodipodi-0.dtd"
   xmlns:inkscape="http://www.inkscape.org/namespaces/inkscape"
   width="136.53334"
   height="136.53334"
   viewBox="0 0 128 128"
   id="svg2"
   version="1.1"
   inkscape:version="0.92.1 r15371"
   sodipodi:docname="logo.svg">
  <defs
     id="defs4" />
  <sodipodi:namedview
     id="base"
     pagecolor="#ffffff"
     bordercolor="#666666"
     borderopacity="1.0"
     inkscape:pageopacity="0.0"
     inkscape:pageshadow="2"
     inkscape:zoom="1.4"
     inkscape:cx="3.1276648"
     inkscape:cy="94.134354"
     inkscape:document-units="px"
     inkscape:current-layer="layer1"
     showgrid="false"
     units="px"
     inkscape:window-width="1366"
     inkscape:window-height="713"
     inkscape:window-x="0"
     inkscape:window-y="33"
     inkscape:window-maximized="1" />
  <metadata
     id="metadata7">
    <rdf:RDF>
      <cc:Work
         rdf:about="">
        <dc:format>image/svg+xml</dc:format>
        <dc:type
           rdf:resource="http://purl.org/dc/dcmitype/StillImage" />
        <dc:title />
      </cc:Work>
    </rdf:RDF>
  </metadata>
  <g
     inkscape:label="Layer 1"
     inkscape:groupmode="layer"
     id="layer1"
     transform="translate(0,-924.36216)">
    <path
       style="fill:#008000;fill-rule:evenodd;stroke:#000000;stroke-width:1px;stroke-linecap:butt;stroke-linejoin:round;stroke-opacity:1"
       d="m 18.808197,1001.4218 c -0.327609,-5.6321 3.114516,-11.00315 7.452953,-9.05964 3.569748,1.59916 5.45312,9.34524 8.589854,18.16804 2.965311,8.3406 4.044202,14.5935 7.776353,14.5935 5.755926,0 9.588049,-15.6309 12.454044,-27.35124 5.019123,-20.52554 7.716341,-32.49452 15.275742,-36.83887 7.812492,-4.4898 17.089929,6.41762 26.071429,7.14286 8.950088,0.7227 14.925298,-3.20239 26.785718,-2.85715 -10.08863,2.91759 -19.03328,8.6977 -26.087522,8.6977 -10.648227,0 -22.345717,-12.11079 -27.490255,-1.26269 -3.069177,6.47186 -5.679753,19.35769 -8.758868,31.00639 -4.465299,16.8928 -10.458045,31.2015 -19.091931,31.2015 -7.621595,0 -9.619202,-9.7855 -13.203135,-20.7143 -3.883132,-11.8411 -6.277547,-17.54423 -9.774382,-12.7261 z"
       id="path4136"
       inkscape:connector-curvature="0"
       sodipodi:nodetypes="csssssscsssssc" />
    <circle
       style="opacity:1;fill:#008000;fill-opacity:1;fill-rule:nonzero;stroke:#000000;stroke-width:1;stroke-linecap:round;stroke-linejoin:miter;stroke-miterlimit:4;stroke-dasharray:none;stroke-dashoffset:0;stroke-opacity:1"
       id="path4138"
       cx="14.843092"
       cy="982.40912"
       r="5.8136334" />
    <circle
       style="opacity:1;fill:#008000;fill-opacity:1;fill-rule:nonzero;stroke:#000000;stroke-width:1;stroke-linecap:round;stroke-linejoin:miter;stroke-miterlimit:4;stroke-dasharray:none;stroke-dashoffset:0;stroke-opacity:1"
       id="path4138-3"
       cx="34.601067"
       cy="982.40912"
       r="5.8136334" />
    <text
       xml:space="preserve"
       style="font-style:normal;font-variant:normal;font-weight:normal;font-stretch:normal;line-height:0%;font-family:'Times New Roman';-inkscape-font-specification:'Times New Roman,';text-align:start;letter-spacing:0px;word-spacing:0px;writing-mode:lr-tb;text-anchor:start;fill:#000000;fill-opacity:1;stroke:none;stroke-width:1px;stroke-linecap:butt;stroke-linejoin:miter;stroke-opacity:1"
       x="72.983521"
       y="1021.5526"
       id="text4155"><tspan
         sodipodi:role="line"
         id="tspan4157"
         x="72.983521"
         y="1021.5526"
         style="font-style:normal;font-variant:normal;font-weight:normal;font-stretch:normal;font-size:80px;line-height:1.25;font-family:'Linux Libertine O';-inkscape-font-specification:'Linux Libertine O'">x</tspan></text>
  </g>
</svg>
